[{
  "id_carpeta": "1",
  "titulo": "Para aprobar",
  "es_default": "1"
}, {
  "id_carpeta": "2",
  "titulo": "Publicados",
  "es_default": "0"
}, {
  "id_carpeta": "3",
  "titulo": "Borrados",
  "es_default": "0"
}, {
  "id_carpeta": "4",
  "titulo": "Rechazados",
  "es_default": "0"
}, {
  "id_carpeta": "5",
  "titulo": "Spam",
  "es_default": "0"
}]
